{"uuid":"26175207-ff7d-44e0-84bd-9951ffedbc97","name":"request get api","historyId":"f67a8707a5d52b6a10caf2c3c1627350:4151609b82fd60da52fe302128be4a3c","status":"failed","statusDetails":{"message":"Error: expect(received).toHaveProperty(path)\n\nExpected path: \"total_page\"\nReceived path: []\n\nReceived value: {\"data\": [{\"avatar\": \"https://reqres.in/img/faces/7-image.jpg\", \"email\": \"michael.lawson@reqres.in\", \"first_name\": \"Michael\", \"id\": 7, \"last_name\": \"Lawson\"}, {\"avatar\": \"https://reqres.in/img/faces/8-image.jpg\", \"email\": \"lindsay.ferguson@reqres.in\", \"first_name\": \"Lindsay\", \"id\": 8, \"last_name\": \"Ferguson\"}, {\"avatar\": \"https://reqres.in/img/faces/9-image.jpg\", \"email\": \"tobias.funke@reqres.in\", \"first_name\": \"Tobias\", \"id\": 9, \"last_name\": \"Funke\"}, {\"avatar\": \"https://reqres.in/img/faces/10-image.jpg\", \"email\": \"byron.fields@reqres.in\", \"first_name\": \"Byron\", \"id\": 10, \"last_name\": \"Fields\"}, {\"avatar\": \"https://reqres.in/img/faces/11-image.jpg\", \"email\": \"george.edwards@reqres.in\", \"first_name\": \"George\", \"id\": 11, \"last_name\": \"Edwards\"}, {\"avatar\": \"https://reqres.in/img/faces/12-image.jpg\", \"email\": \"rachel.howell@reqres.in\", \"first_name\": \"Rachel\", \"id\": 12, \"last_name\": \"Howell\"}], \"page\": 2, \"per_page\": 6, \"support\": {\"text\": \"Tired of writing endless social media content? Let Content Caddy generate it for you.\", \"url\": \"https://contentcaddy.io?utm_source=reqres&utm_medium=json&utm_campaign=referral\"}, \"total\": 12, \"total_pages\": 2}","trace":"Error: expect(received).toHaveProperty(path)\n\nExpected path: \"total_page\"\nReceived path: []\n\nReceived value: {\"data\": [{\"avatar\": \"https://reqres.in/img/faces/7-image.jpg\", \"email\": \"michael.lawson@reqres.in\", \"first_name\": \"Michael\", \"id\": 7, \"last_name\": \"Lawson\"}, {\"avatar\": \"https://reqres.in/img/faces/8-image.jpg\", \"email\": \"lindsay.ferguson@reqres.in\", \"first_name\": \"Lindsay\", \"id\": 8, \"last_name\": \"Ferguson\"}, {\"avatar\": \"https://reqres.in/img/faces/9-image.jpg\", \"email\": \"tobias.funke@reqres.in\", \"first_name\": \"Tobias\", \"id\": 9, \"last_name\": \"Funke\"}, {\"avatar\": \"https://reqres.in/img/faces/10-image.jpg\", \"email\": \"byron.fields@reqres.in\", \"first_name\": \"Byron\", \"id\": 10, \"last_name\": \"Fields\"}, {\"avatar\": \"https://reqres.in/img/faces/11-image.jpg\", \"email\": \"george.edwards@reqres.in\", \"first_name\": \"George\", \"id\": 11, \"last_name\": \"Edwards\"}, {\"avatar\": \"https://reqres.in/img/faces/12-image.jpg\", \"email\": \"rachel.howell@reqres.in\", \"first_name\": \"Rachel\", \"id\": 12, \"last_name\": \"Howell\"}], \"page\": 2, \"per_page\": 6, \"support\": {\"text\": \"Tired of writing endless social media content? Let Content Caddy generate it for you.\", \"url\": \"https://contentcaddy.io?utm_source=reqres&utm_medium=json&utm_campaign=referral\"}, \"total\": 12, \"total_pages\": 2}\n    at C:\\Playwright Automation\\tests\\apiTest\\getRequest.spec.js:13:20"},"stage":"finished","steps":[{"status":"passed","statusDetails":{},"stage":"finished","steps":[{"status":"passed","statusDetails":{},"stage":"finished","steps":[{"status":"passed","statusDetails":{},"stage":"finished","steps":[],"attachments":[],"parameters":[],"name":"apiRequest.newContext","start":1752076937017,"uuid":"6e1800cd-9541-482b-b434-5acaa958b797","stop":1752076937022}],"attachments":[],"parameters":[],"name":"fixture: request","start":1752076937014,"uuid":"73c39c3a-d05a-46f6-bf0d-4aa06e0eaec5","stop":1752076937022}],"attachments":[],"parameters":[],"name":"Before Hooks","start":1752076937002,"uuid":"3b186f8c-9fbc-4ebc-a8c9-f2d4439695ad","stop":1752076937022},{"status":"passed","statusDetails":{},"stage":"finished","steps":[],"attachments":[],"parameters":[],"start":1752076937024,"name":"apiRequestContext.get(https://reqres.in/api/users?page=2)","uuid":"0626fe70-1df6-47cb-a67d-d24cde9a3f8d","stop":1752076937711},{"status":"passed","statusDetails":{},"stage":"finished","steps":[],"attachments":[],"parameters":[],"start":1752076937715,"name":"expect.toBeTruthy","uuid":"128b2d4c-4505-4dc8-a9f9-e12f959fdebe","stop":1752076937716},{"status":"passed","statusDetails":{},"stage":"finished","steps":[],"attachments":[],"parameters":[],"start":1752076937717,"name":"expect.toBe","uuid":"3be12c46-6721-4fe9-ac5e-9a9b10b47489","stop":1752076937724},{"status":"passed","statusDetails":{},"stage":"finished","steps":[],"attachments":[],"parameters":[],"start":1752076937722,"name":"expect.toBe","uuid":"e19e4d9d-c892-455a-8bc4-4b3832b530d8","stop":1752076937723},{"status":"failed","statusDetails":{"message":"Error: expect(received).toHaveProperty(path)\n\nExpected path: \"total_page\"\nReceived path: []\n\nReceived value: {\"data\": [{\"avatar\": \"https://reqres.in/img/faces/7-image.jpg\", \"email\": \"michael.lawson@reqres.in\", \"first_name\": \"Michael\", \"id\": 7, \"last_name\": \"Lawson\"}, {\"avatar\": \"https://reqres.in/img/faces/8-image.jpg\", \"email\": \"lindsay.ferguson@reqres.in\", \"first_name\": \"Lindsay\", \"id\": 8, \"last_name\": \"Ferguson\"}, {\"avatar\": \"https://reqres.in/img/faces/9-image.jpg\", \"email\": \"tobias.funke@reqres.in\", \"first_name\": \"Tobias\", \"id\": 9, \"last_name\": \"Funke\"}, {\"avatar\": \"https://reqres.in/img/faces/10-image.jpg\", \"email\": \"byron.fields@reqres.in\", \"first_name\": \"Byron\", \"id\": 10, \"last_name\": \"Fields\"}, {\"avatar\": \"https://reqres.in/img/faces/11-image.jpg\", \"email\": \"george.edwards@reqres.in\", \"first_name\": \"George\", \"id\": 11, \"last_name\": \"Edwards\"}, {\"avatar\": \"https://reqres.in/img/faces/12-image.jpg\", \"email\": \"rachel.howell@reqres.in\", \"first_name\": \"Rachel\", \"id\": 12, \"last_name\": \"Howell\"}], \"page\": 2, \"per_page\": 6, \"support\": {\"text\": \"Tired of writing endless social media content? Let Content Caddy generate it for you.\", \"url\": \"https://contentcaddy.io?utm_source=reqres&utm_medium=json&utm_campaign=referral\"}, \"total\": 12, \"total_pages\": 2}","trace":"Error: expect(received).toHaveProperty(path)\n\nExpected path: \"total_page\"\nReceived path: []\n\nReceived value: {\"data\": [{\"avatar\": \"https://reqres.in/img/faces/7-image.jpg\", \"email\": \"michael.lawson@reqres.in\", \"first_name\": \"Michael\", \"id\": 7, \"last_name\": \"Lawson\"}, {\"avatar\": \"https://reqres.in/img/faces/8-image.jpg\", \"email\": \"lindsay.ferguson@reqres.in\", \"first_name\": \"Lindsay\", \"id\": 8, \"last_name\": \"Ferguson\"}, {\"avatar\": \"https://reqres.in/img/faces/9-image.jpg\", \"email\": \"tobias.funke@reqres.in\", \"first_name\": \"Tobias\", \"id\": 9, \"last_name\": \"Funke\"}, {\"avatar\": \"https://reqres.in/img/faces/10-image.jpg\", \"email\": \"byron.fields@reqres.in\", \"first_name\": \"Byron\", \"id\": 10, \"last_name\": \"Fields\"}, {\"avatar\": \"https://reqres.in/img/faces/11-image.jpg\", \"email\": \"george.edwards@reqres.in\", \"first_name\": \"George\", \"id\": 11, \"last_name\": \"Edwards\"}, {\"avatar\": \"https://reqres.in/img/faces/12-image.jpg\", \"email\": \"rachel.howell@reqres.in\", \"first_name\": \"Rachel\", \"id\": 12, \"last_name\": \"Howell\"}], \"page\": 2, \"per_page\": 6, \"support\": {\"text\": \"Tired of writing endless social media content? Let Content Caddy generate it for you.\", \"url\": \"https://contentcaddy.io?utm_source=reqres&utm_medium=json&utm_campaign=referral\"}, \"total\": 12, \"total_pages\": 2}\n    at C:\\Playwright Automation\\tests\\apiTest\\getRequest.spec.js:13:20"},"stage":"finished","steps":[],"attachments":[],"parameters":[],"start":1752076937724,"name":"expect.toHaveProperty","uuid":"625ca424-1b57-49f8-af08-c1460a4d9cbe","stop":1752076937728},{"statusDetails":{},"stage":"finished","steps":[],"attachments":[{"name":"_error-context-0","source":"acf52e38-e388-4940-bbb5-b8102a5a4dad-attachment.md","type":"text/markdown"}],"parameters":[],"start":1752076937760,"name":"_error-context-0","stop":1752076937760},{"status":"passed","statusDetails":{},"stage":"finished","steps":[{"status":"passed","statusDetails":{},"stage":"finished","steps":[{"status":"passed","statusDetails":{},"stage":"finished","steps":[],"attachments":[],"parameters":[],"name":"apiRequestContext.dispose","start":1752076937734,"uuid":"b3b41a69-5e76-451b-b1ca-2dfaef8bc49a","stop":1752076937736}],"attachments":[],"parameters":[],"name":"fixture: request","start":1752076937732,"uuid":"a0058a2a-e06c-4f7b-bfe6-12eb885cb07b","stop":1752076937736}],"attachments":[],"parameters":[],"name":"After Hooks","start":1752076937730,"uuid":"c31a0370-b89b-46a9-af44-4ebd13c74f92","stop":1752076937749}],"attachments":[{"name":"stdout","source":"5baa4312-792f-4731-bb1e-71199472799a-attachment.txt","type":"text/plain"}],"parameters":[{"name":"Project","value":"Google Chrome"}],"labels":[{"name":"language","value":"javascript"},{"name":"framework","value":"playwright"},{"name":"package","value":"apiTest.getRequest.spec.js"},{"name":"titlePath","value":" > Google Chrome > apiTest\\getRequest.spec.js"},{"name":"host","value":"INBOOK_X1_SLIM"},{"name":"thread","value":"pid-1132-worker-0"},{"name":"parentSuite","value":"Google Chrome"},{"name":"suite","value":"apiTest\\getRequest.spec.js"}],"links":[],"start":1752076937008,"testCaseId":"f67a8707a5d52b6a10caf2c3c1627350","fullName":"apiTest/getRequest.spec.js:3:1","titlePath":["apiTest","getRequest.spec.js"],"stop":1752076937737}